<?xml version="1.0" encoding="utf-8"?>
<!-- Generator: Adobe Illustrator 25.4.0, SVG Export Plug-In . SVG Version: 6.00 Build 0)  -->
<svg version="1.1" id="Слой_1" xmlns="http://www.w3.org/2000/svg" xmlns:xlink="http://www.w3.org/1999/xlink" x="0px" y="0px"
	 viewBox="0 0 55 54" style="enable-background:new 0 0 55 54;" xml:space="preserve" width="55" height="54">
<style type="text/css">
	.st0{clip-path:url(#SVGID_00000118377126660557631190000001873441578067613356_);}
	.st1{fill:#F1F5F9;}
	.st2{fill:#3581D6;}
	.st3{fill:#6EB2FD;}
	.st4{fill:#FFF700;}
	.st5{fill:#212529;}
</style>
<g>
	<defs>
		<rect id="SVGID_1_" x="0.2" y="6" width="48" height="48"/>
	</defs>
	<clipPath id="SVGID_00000096780412389476131910000015177521170399563427_">
		<use xlink:href="#SVGID_1_"  style="overflow:visible;"/>
	</clipPath>
	<g style="clip-path:url(#SVGID_00000096780412389476131910000015177521170399563427_);">
		<path class="st1" d="M44.2,46c0,0.5-0.2,1-0.6,1.4c-0.4,0.4-0.9,0.6-1.4,0.6h-36c-0.5,0-1-0.2-1.4-0.6C4.5,47,4.2,46.5,4.2,46v-2
			h36V20.6L24.2,35l-20-18v-3c0-0.5,0.2-1,0.6-1.4C5.2,12.2,5.7,12,6.2,12h36c0.5,0,1,0.2,1.4,0.6s0.6,0.9,0.6,1.4V46z M9.1,16
			l15.1,13.6L39.4,16H9.1z M0.2,36h16v4h-16V36z M0.2,26h10v4h-10V26z"/>
	</g>
</g>
<path class="st2" d="M49.3,14.6l0,6l-4.7-2.7l-0.1-6.2L49.3,14.6z"/>
<path class="st3" d="M44.7,5.9l0,6.1l4.7-2.7l0.1-6.2L44.7,5.9z"/>
<path class="st3" d="M39.9,14.8l0,6l4.7-2.7l0.1-6.2L39.9,14.8z"/>
<path class="st3" d="M49.6,14.6l0,6l4.7-2.7l0.1-6.2L49.6,14.6z"/>
<path class="st3" d="M35,5.9l0,6.1l4.7-2.7l0.1-6.2L35,5.9z"/>
<path class="st2" d="M44.7,5.9l0,6.1L40,9.3l-0.1-6.2L44.7,5.9z"/>
<path class="st2" d="M39.8,14.8l0,6l-4.7-2.7L35,11.9L39.8,14.8z"/>
<path class="st2" d="M54.4,6.1l0,6l-4.7-2.7l-0.1-6.2L54.4,6.1z"/>
<path class="st4" d="M49.5,9.2l-5,2.9l4.9,2.7l4.8-2.6L49.5,9.2z"/>
<path class="st4" d="M44.8,0.2l-5,2.9l4.9,2.7l4.8-2.6L44.8,0.2z"/>
<path class="st4" d="M40,9.1l-5,2.9l4.9,2.7l4.8-2.6L40,9.1z"/>
<path class="st4" d="M44.8,17.8l-5,2.9l4.9,2.7l4.8-2.6L44.8,17.8z"/>
<path class="st5" d="M44.7,23.9L44.7,23.9l-9.9-6V6l9.9-6l0.1,0.1L54.6,6v11.9L44.7,23.9z M35.1,17.7l9.6,5.8l9.6-5.8V6.2l-9.6-5.7
	l-9.6,5.7L35.1,17.7z"/>
<path class="st5" d="M44.7,6.2l-5-3l0.2-0.3l4.8,2.9l4.8-2.8l0.2,0.3L44.7,6.2z"/>
<path class="st5" d="M44.6,5.9l-0.1,12l0.4,0l0.1-12L44.6,5.9z"/>
<path class="st5" d="M49.5,21l-4.8-2.9L39.9,21l-0.2-0.3l4.9-2.9l5,3L49.5,21z"/>
<path class="st5" d="M49.3,14.8l0,6.1l0.4,0l0-6.1L49.3,14.8z"/>
<path class="st5" d="M49.4,3.1l0,6.2l0.4,0l0-6.2L49.4,3.1z"/>
<path class="st5" d="M39.7,14.7l0,6.1l0.4,0l0-6.1L39.7,14.7z"/>
<path class="st5" d="M39.8,3.1l0,6.1l0.4,0l0-6.1L39.8,3.1z"/>
<path class="st5" d="M49.4,15l-4.9-2.9l0.2-0.3l4.7,2.8l4.9-2.7l0.2,0.3L49.4,15z"/>
<path class="st5" d="M54.3,12.2l-4.8-2.7l-4.8,2.7l-0.2-0.3L49.5,9l5,2.8L54.3,12.2z"/>
<path class="st5" d="M39.9,14.9l-5-2.8l0.2-0.3l4.8,2.7l4.8-2.7l0.2,0.3L39.9,14.9z"/>
<path class="st5" d="M44.6,12.2l-4.7-2.8L35,12.2l-0.2-0.3L39.9,9l4.9,2.9L44.6,12.2z"/>
</svg>
